CRITICAL - 2020-11-09 13:18:48 --> Invalid file: verifications.php
#0 /Applications/MAMP/htdocs/sd/system/View/View.php(228): CodeIgniter\Exceptions\FrameworkException::forInvalidFile('verifications.p...')
#1 /Applications/MAMP/htdocs/sd/system/Common.php(1119): CodeIgniter\View\View->render('verifications', Array, true)
#2 /Applications/MAMP/htdocs/sd/app/Controllers/BaseController.php(48): view('verifications', Array)
#3 /Applications/MAMP/htdocs/sd/app/Controllers/Dashboard.php(26): App\Controllers\BaseController->loadView('verifications')
#4 /Applications/MAMP/htdocs/sd/system/CodeIgniter.php(918): App\Controllers\Dashboard->getVerifications()
#5 /Applications/MAMP/htdocs/sd/system/CodeIgniter.php(404): CodeIgniter\CodeIgniter->runController(Object(App\Controllers\Dashboard))
#6 /Applications/MAMP/htdocs/sd/system/CodeIgniter.php(312): CodeIgniter\CodeIgniter->handleRequest(NULL, Object(Config\Cache), false)
#7 /Applications/MAMP/htdocs/sd/public/index.php(45): CodeIgniter\CodeIgniter->run()
#8 {main}
CRITICAL - 2020-11-09 13:19:58 --> Invalid file: verifications.php
#0 /Applications/MAMP/htdocs/sd/system/View/View.php(228): CodeIgniter\Exceptions\FrameworkException::forInvalidFile('verifications.p...')
#1 /Applications/MAMP/htdocs/sd/system/Common.php(1119): CodeIgniter\View\View->render('verifications', Array, true)
#2 /Applications/MAMP/htdocs/sd/app/Controllers/Dashboard.php(26): view('verifications')
#3 /Applications/MAMP/htdocs/sd/system/CodeIgniter.php(918): App\Controllers\Dashboard->getVerifications()
#4 /Applications/MAMP/htdocs/sd/system/CodeIgniter.php(404): CodeIgniter\CodeIgniter->runController(Object(App\Controllers\Dashboard))
#5 /Applications/MAMP/htdocs/sd/system/CodeIgniter.php(312): CodeIgniter\CodeIgniter->handleRequest(NULL, Object(Config\Cache), false)
#6 /Applications/MAMP/htdocs/sd/public/index.php(45): CodeIgniter\CodeIgniter->run()
#7 {main}
CRITICAL - 2020-11-09 13:20:11 --> Invalid file: verifications.php
#0 /Applications/MAMP/htdocs/sd/system/View/View.php(228): CodeIgniter\Exceptions\FrameworkException::forInvalidFile('verifications.p...')
#1 /Applications/MAMP/htdocs/sd/system/Common.php(1119): CodeIgniter\View\View->render('verifications', Array, true)
#2 /Applications/MAMP/htdocs/sd/app/Controllers/Dashboard.php(26): view('verifications')
#3 /Applications/MAMP/htdocs/sd/system/CodeIgniter.php(918): App\Controllers\Dashboard->getVerifications()
#4 /Applications/MAMP/htdocs/sd/system/CodeIgniter.php(404): CodeIgniter\CodeIgniter->runController(Object(App\Controllers\Dashboard))
#5 /Applications/MAMP/htdocs/sd/system/CodeIgniter.php(312): CodeIgniter\CodeIgniter->handleRequest(NULL, Object(Config\Cache), false)
#6 /Applications/MAMP/htdocs/sd/public/index.php(45): CodeIgniter\CodeIgniter->run()
#7 {main}
